…
At its most basic there is only one function of interest, `ndc_query`,
which both pulls from the API and cleans the data into one dataframe.

``` r
library(oFDAinfo)
## basic example code
drugs_of_interest <- list(c("generic_name", "methotrexate"), 
                          c("brand_name", "humira")
                          )
output <- ndc_query(drugs_of_interest,  csv = FALSE)
#> Fetching: https://api.fda.gov/drug/ndc.json?search=generic_name:methotrexate&api_key=kwBweTyY0zxYfj27l7t6P7o68nSdxYaBspGyoBBy&limit=100 
#> Fetching: https://api.fda.gov/drug/ndc.json?search=brand_name:humira&api_key=kwBweTyY0zxYfj27l7t6P7o68nSdxYaBspGyoBBy&limit=100
output
#> # A tibble: 157 x 9
#>    product_ndc generic_name labeler_name brand_name dosage_form route
#>    <chr>       <chr>        <chr>        <chr>      <chr>       <chr>
#>  1 69238-1423  Methotrexate Amneal Phar… Methotrex… TABLET      ORAL 
#>  2 69238-1423  Methotrexate Amneal Phar… Methotrex… TABLET      ORAL 
#>  3 63323-122   METHOTREXAT… Fresenius K… Methotrex… INJECTION,… "c(\…
#>  4 63323-123   METHOTREXAT… Fresenius K… Methotrex… INJECTION,… "c(\…
#>  5 67253-320   METHOTREXATE Par Pharmac… METHOTREX… TABLET      ORAL 
#>  6 67253-320   METHOTREXATE Par Pharmac… METHOTREX… TABLET      ORAL 
#>  7 67457-466   Methotrexate Mylan Insti… Methotrex… INJECTION   "c(\…
#>  8 67457-480   Methotrexate Mylan Insti… Methotrex… INJECTION   "c(\…
#>  9 68382-775   Methotrexate Zydus Pharm… Methotrex… TABLET      ORAL 
#> 10 68382-775   Methotrexate Zydus Pharm… Methotrex… TABLET      ORAL 
#> # … with 147 more rows, and 3 more variables: brand_name_base <chr>,
#> #   package_ndc <chr>, description <chr>
```
…
